{
  "project_info": {
    "project_number": "617710472457",
    "firebase_url": "https://mixtec-notes.firebaseio.com",
    "project_id": "mixtec-notes",
    "storage_bucket": "mixtec-notes.appspot.com"
  },
  "client": [
    {
      "client_info": {
        "mobilesdk_app_id": "1:617710472457:android:74550d1e61f07d0e",
        "android_client_info": {
          "package_name": "org.mixteco.mixtecnotes"
        }
      },
      "oauth_client": [
        {
          "client_id": "617710472457-it84jau5j9l7qqatt5o6ogat8g1hgojq.apps.googleusercontent.com",
          "client_type": 1,
          "android_info": {
            "package_name": "org.mixteco.mixtecnotes",
            "certificate_hash": "ae8562683346cccabcc4232793fabc28a1cf5395"
          }
        },
        {
          "client_id": "617710472457-3q7jcap8eg3ess9df1mo3icrpj12e46o.apps.googleusercontent.com",
          "client_type": 3
        }
      ],
      "api_key": [
        {
          "current_key": "AIzaSyDiT39Wglq_IA6FE3MRh_DfOAHUhDihBKw"
        }
      ],
      "services": {
        "analytics_service": {
          "status": 1
        },
        "appinvite_service": {
          "status": 2,
          "other_platform_oauth_client": [
            {
              "client_id": "617710472457-3q7jcap8eg3ess9df1mo3icrpj12e46o.apps.googleusercontent.com",
              "client_type": 3
            }
          ]
        },
        "ads_service": {
          "status": 2
        }
      }
    },
    {
      "client_info": {
        "mobilesdk_app_id": "1:617710472457:android:cc8ef67a1b012664",
        "android_client_info": {
          "package_name": "com.example.romiz_2.firebase"
        }
      },
      "oauth_client": [
        {
          "client_id": "617710472457-t0a7b5pbjp9onp6hrerk5hs2l96n1dsv.apps.googleusercontent.com",
          "client_type": 1,
          "android_info": {
            "package_name": "com.example.romiz_2.firebase",
            "certificate_hash": "ae8562683346cccabcc4232793fabc28a1cf5395"
          }
        },
        {
          "client_id": "617710472457-3q7jcap8eg3ess9df1mo3icrpj12e46o.apps.googleusercontent.com",
          "client_type": 3
        }
      ],
      "api_key": [
        {
          "current_key": "AIzaSyDiT39Wglq_IA6FE3MRh_DfOAHUhDihBKw"
        }
      ],
      "services": {
        "analytics_service": {
          "status": 1
        },
        "appinvite_service": {
          "status": 2,
          "other_platform_oauth_client": [
            {
              "client_id": "617710472457-3q7jcap8eg3ess9df1mo3icrpj12e46o.apps.googleusercontent.com",
              "client_type": 3
            }
          ]
        },
        "ads_service": {
          "status": 2
        }
      }
    }
  ],
  "configuration_version": "1"
}